<svg xmlns="http://www.w3.org/2000/svg" viewBox="0 0 102.4 51.92">
    <title>logo_icon</title>
    <g id="Layer_2" data-name="Layer 2">
        <g id="svg2">
            <g id="g74">
                <g id="id5">
                    <rect id="rect77" y="40.42" width="102.4" height="11.49" style="fill:none"/>
                    <path id="path79"
                          d="M102.32,40.42a2.87,2.87,0,0,1,.07.58c0,6-22.92,10.91-51.19,10.91S0,47,0,41a1.34,1.34,0,0,1,0-.2c3.65,2,9,3.58,15.64,4.73a8,8,0,0,1,5,4.18,4.26,4.26,0,0,1,2-1.74,13.5,13.5,0,0,1,5.37-.9c7,.62,14.65.91,22.75.91C73.89,48,93.77,45.76,102.32,40.42Z"
                          style="fill:#b1c900;fill-rule:evenodd"/>
                </g>
            </g>
            <g id="g88">
                <g id="id7">
                    <rect id="rect91" x="10.94" width="80.32" height="44.85" style="fill:none"/>
                    <path id="path93"
                          d="M90.69,19.81c1.84,1.48-1.06,7.63-10,10.49-2.31.75-4.46,1.33-6.5,1.79-4.46,1-8.7.94-13.18,2-3.15.73-6.78,1.48-8.11,4.75-1,2.59-1.25,5.9-2.29,6s-1.21-3.11-2.21-5.63c-1.19-3-4.09-3.92-7-4.82-4-1.21-7.67-1.21-11.64-2a71.85,71.85,0,0,1-8.19-2.1c-9-2.86-11.84-9-10-10.49s12.32-1.44,21.73,1.58l.85.27c-3.63-8.29-2.81-15.91-.33-16.59,1.64-.46,5.63,1.6,9.67,5.31C45.13,4.21,48.3,0,50.31,0s5.21,4.36,7,10.63c4.13-3.87,8.26-6,9.93-5.56,2.54.71,3.33,8.63-.57,17.14.75-.3,1.52-.57,2.32-.82C78.37,18.37,90.69,19.81,90.69,19.81ZM45.61,34.13l-.16,0c-3.3-1.71-6.51-5.73-8.8-10.55-3.4-7.09-2.8-13.8-.69-14.39,1.19-.33,3.92,1,6.84,3.46a34.21,34.21,0,0,0-.75,5.51C41.69,25.08,45.61,34.13,45.61,34.13Zm13.81-1.29c3.9-.92,12.24-1.67,19.12-3.86,7.44-2.37,10.24-6.32,8.53-7.61s-10.14-.52-17.77,1.92a21.13,21.13,0,0,0-4.17,2A60,60,0,0,1,59.42,32.84ZM35.29,24.29a33.33,33.33,0,0,0,5.88,8.22c-4.29-.8-11.51-1.59-17.57-3.53-7.45-2.37-10.22-6.32-8.53-7.61s10.15-.52,17.76,1.92C33.67,23.56,35.29,24.29,35.29,24.29Zm20.33-12a39.3,39.3,0,0,0-4.75,6.15l-.42.67c-.12-.23-.27-.44-.39-.67a38.93,38.93,0,0,0-5-6.42c1.48-4.38,3.77-7.3,5.28-7.3S55.62,12.32,55.62,12.32Zm2.21.54a34,34,0,0,1,.73,5.26c.42,7.17-.85,13.39-3.85,16.35,3.54-1.44,7.08-5.74,9.57-10.93,3.39-7.09,2.79-13.8.68-14.39C63.73,8.8,57.83,12.86,57.83,12.86Zm-1.6,1.51A30.53,30.53,0,0,1,57,19.45c.29,5.26-.5,10-2.46,12.74.52-2.92-.73-7-3.21-11.55L51.7,20A56.9,56.9,0,0,1,56.23,14.37ZM46.49,32.74c-2.23-2.59-3.17-7.64-2.88-13.29a28.66,28.66,0,0,1,.82-5.35A31.28,31.28,0,0,1,49.2,20c.15.21.27.41.4.62C47,25.46,46.49,32.74,46.49,32.74Zm-.6-1.84v0Z"
                          style="fill:#b1c900;fill-rule:evenodd"/>
                </g>
            </g>
        </g>
    </g>
</svg>
